module bitbucket.org/ahmad4hat/ecommerce-basic-website-with-go-and-oracle

go 1.13

require (
	github.com/0xAX/notificator v0.0.0-20191016112426-3962a5ea8da1 // indirect
	github.com/codegangsta/envy v0.0.0-20141216192214-4b78388c8ce4 // indirect
	github.com/codegangsta/gin v0.0.0-20171026143024-cafe2ce98974 // indirect
	github.com/godror/godror v0.13.1
	github.com/julienschmidt/httprouter v1.3.0
	github.com/mattn/go-shellwords v1.0.10 // indirect
	github.com/satori/go.uuid v1.2.0
	gopkg.in/urfave/cli.v1 v1.20.0 // indirect
)
